{
  "project_info": {
    "project_number": "196900247489",
    "firebase_url": "https://presupuesto-mensual-8f0eb.firebaseio.com",
    "project_id": "presupuesto-mensual-8f0eb",
    "storage_bucket": "presupuesto-mensual-8f0eb.appspot.com"
  },
  "client": [
    {
      "client_info": {
        "mobilesdk_app_id": "1:196900247489:android:790ad0700f267c7ad08140",
        "android_client_info": {
          "package_name": "com.nerdytrust.pm"
        }
      },
      "oauth_client": [
        {
          "client_id": "196900247489-ltglril81hiarjooh6218ravgqvqltl9.apps.googleusercontent.com",
          "client_type": 3
        }
      ],
      "api_key": [
        {
          "current_key": "AIzaSyAVcfTXUi8aIInuKrJUHWcxHu5uVD1ovEM"
        }
      ],
      "services": {
        "appinvite_service": {
          "other_platform_oauth_client": [
            {
              "client_id": "196900247489-ltglril81hiarjooh6218ravgqvqltl9.apps.googleusercontent.com",
              "client_type": 3
            }
          ]
        }
      }
    }
  ],
  "configuration_version": "1"
}